1st Assignment
…
Create new feature: Expensive and non expensive neighbourhoods

Where the house is located is another variable that usually has a big impact on the Sale Price. Currently, Neighborhoods are categorical variables that will not be included in our model.

#We check differences in mean and median prices per area: 

PriceAreas =train1 %>%
  select(Neighborhood, SalePrice) %>%
  group_by(Neighborhood) %>%
  summarise(median.price = median(SalePrice, na.rm = T), mean.price = mean(SalePrice)) %>%
  arrange(desc(mean.price))

PriceAreas

## # A tibble: 25 x 3
##    Neighborhood median.price mean.price
##    <fct>               <dbl>      <dbl>
##  1 NoRidge            301500     335295
##  2 NridgHt            315000     316271
##  3 StoneBr            278000     310499
##  4 Timber             228475     242247
##  5 Veenker            218000     238773
##  6 Somerst            225500     225380
##  7 ClearCr            200250     212565
##  8 Crawfor            200624     210625
##  9 CollgCr            197200     197966
## 10 Blmngtn            191000     194871
## # ... with 15 more rows
…
